
state={
	id=180
	name="STATE_180"
	manpower = 1904600
	
	state_category = large_town

	history={
		owner = SPR
		victory_points = {
			9817 10
		}
		victory_points = {
			11673 5
		}
		buildings = {
			infrastructure = 5
			industrial_complex = 2
			dockyard = 1
			9817 = {
				naval_base = 3
			}
		}
		add_core_of = SPR
	}

	provinces={
		724 877 3892 6921 6941 9817 11673 
	}
}
