
state={
	id=308
	name="STATE_308"
	manpower=	25678
	state_category = tiny_island

	history={
		add_core_of = HAI
		owner = HAI
		buildings = {
			infrastructure = 4
			4450 = {
				naval_base = 1
			}
			7123 = {
				naval_base = 1
			}
		}
	}

	provinces={
		4450 7123
	}
}
