state={
	id=332
	name="STATE_332"
	
	state_category = wasteland

	history={
		owner = ICE
		buildings = {
			infrastructure = 1

			12503 = {
				naval_base = 1
			}
		}
		add_core_of = ICE

	}

	provinces={
		1426 1785 4720 4787 12503 13165 13180 
	}
	manpower=22179
	buildings_max_level_factor=1.000
}
