
state={
	id=369
	name="STATE_369"
	manpower = 2614588

	state_category = city

	history={
		owner = MIS
		buildings = {
			infrastructure = 5
			industrial_complex = 3
			air_base = 4
		}
		add_core_of = MIS
		victory_points = {
			6696 1
		}

	}

	provinces={
		1445 1582 4402 4452 4988 6696 6974 7547 9727 10727 12568 12637 12709 9779
	}
}
