
state={
	id=396
	name="STATE_396"
	manpower = 3238501
	state_category = large_city

	history={
		owner = GPF
		buildings = {
			infrastructure = 6
			industrial_complex = 5
		}
		add_core_of = GPF
		victory_points = {
			1595 5
		}

	}

	provinces={
		870 1595 1881 4437 4527 4531 6713 7551 9653 9654 9796 9810 10448 11621 11635 11637 12437 689 3872 11791 831 11760 11776 4601 9775 11890
	}
}
