state={
	id=45
	name="STATE_45"

	history={
		victory_points = { 619 3 }
		owner = ITA
		buildings = {
			infrastructure = 6

		}
		add_core_of = ITA
		add_core_of = SER

	}

	provinces={
		619 3617 3623 9608 9621
	}
	manpower=838621
	buildings_max_level_factor=1.000
	state_category=town
}
