
state={
	id=482
	name="STATE_482"
	manpower = 520751

	state_category = rural

	history={
		owner = MEX
		buildings = {
			infrastructure = 3
		}
		add_core_of = MEX

		victory_points = {
			8097 10
		}
		victory_points = {
			10830 10
		}
	}

	provinces={
		2037 4898 7935 8097 10809 10830 10916 12745 12827 12850 12897 10740 10894 1954 5038 3867 12791 5044
	}

}
