state=
{
	id=638
	name="STATE_638"
	state_category = small_island
	manpower=75153
	history=
	{
		owner = JAP
		add_core_of = JAP
		add_core_of = GUA
		buildings = {
			infrastructure = 5
			12140 = {
				naval_base = 1
			}
		}
		victory_points = {
			12140 1
		 }

	}
	provinces={
		12140
	}
}
