state={
	id=799
	name="STATE_799"
	provinces={
		12029 
	}
	manpower = 234379
	
	state_category = enclave

	history= {
		owner = EGY
		add_core_of = TUR
		add_core_of = EGY
		add_core_of = SYR
		victory_points = {
			12029 1
		}
		buildings = {
			infrastructure = 2
		}

		1938.9.30 = {
			owner = TUR
			controller = TUR
		}
	}
}
