state={
	id=808
	name="STATE_808"
	provinces={
		46 113 168 202 3039 3108 3111 3162 3191 6010 6123 6126 6129 6185 6207 9066 9068 9148 9154 9171 9229 11049 11052 11053 11116 11148 11187 13117 
	}
	history={
		owner = DEN
		victory_points = {
			46 1 
		}
		buildings = {
			infrastructure = 4
		}
		add_core_of = DEN
		add_core_of = NOR

	}
	manpower=132783
	state_category=pastoral
	buildings_max_level_factor=1.000
}
