
state={
	id=82
	name="STATE_82"
	manpower = 941500
	resources={
		aluminium=4 # was: 6
	}
	
	state_category = rural

	history={
		victory_points = {
			9606 3
		}
		owner = POL
		buildings = {
			infrastructure = 5
			industrial_complex = 1
		}
		add_core_of = POL
		add_core_of = ROM
		add_core_of = TRA
	}

	provinces={
		646 662 3649 9606 11592 11608 
	}
}
